 _    _  ___  __     __   __   __  __  ___    ___  ___  ___   __  _  _   __    ___   __    __   ____ 
( \/\/ )(  _)(  )   / _) /  \ (  \/  )(  _)  / __)(  ,\(  ,) (  )( \( ) / _)  (  ,) /  \  /  \ (_  _)
 \    /  ) _) )(__ ( (_ ( () ) )    (  ) _)  \__ \ ) _/ )  \  )(  )  ( ( (/\   ) ,\( () )( () )  )(  
  \/\/  (___)(____) \__) \__/ (_/\/\_)(___)  (___/(_)  (_)\_)(__)(_)\_) \__/  (___/ \__/  \__/  (__) 
${Ansi.GREEN} :: Spring Boot ::${spring-boot.formatted-version} ${Ansi.DEFAULT}
